[gd_scene load_steps=3 format=2]

[ext_resource path="res://move.gd" type="Script" id=1]
[ext_resource path="res://ship_01.png" type="Texture" id=2]

[node name="player" type="Node2D"]

[node name="icon" type="Sprite" parent="."]
rotation = 2.15723
scale = Vector2( 4, 4 )
texture = ExtResource( 2 )
script = ExtResource( 1 )
